HAPRA/Hapra9/mips/testbench.vcd
$date
  Tue Jan 14 17:32:32 2025
$end
$version
  GHDL v0
$end
$timescale
  1 fs
$end
$scope module standard $end
$upscope $end
$scope module std_logic_1164 $end
$upscope $end
$scope module numeric_std $end
$upscope $end
$scope module mips_tb $end
$var reg 1 ! clk_t $end
$var reg 1 " reset_t $end
$var reg 1 # memwrite_t $end
$var reg 32 $ pc_t[31:0] $end
$var reg 32 % instr_t[31:0] $end
$var reg 32 & aluout_t[31:0] $end
$var reg 32 ' writedata_t[31:0] $end
$var reg 32 ( readdata_t[31:0] $end
$scope module mips_test $end
$var reg 1 ) clk $end
$var reg 1 * reset $end
$var reg 32 + pc[31:0] $end
$var reg 32 , instr[31:0] $end
$var reg 32 - readdata[31:0] $end
$var reg 32 . aluout[31:0] $end
$var reg 32 / writedata[31:0] $end
$var reg 1 0 memwrite $end
$var reg 1 1 memtoreg $end
$var reg 1 2 alusrc $end
$var reg 1 3 regdst $end
$var reg 1 4 regwrite $end
$var reg 1 5 jump $end
$var reg 1 6 pcsrc $end
$var reg 1 7 zero $end
$var reg 3 8 alucontrol[2:0] $end
$scope module mips_control $end
$var reg 6 9 op[5:0] $end
$var reg 6 : funct[5:0] $end
$var reg 1 ; zero $end
$var reg 1 < memtoreg $end
$var reg 1 = memwrite $end
$var reg 1 > pcsrc $end
$var reg 1 ? alusrc $end
$var reg 1 @ regdst $end
$var reg 1 A regwrite $end
$var reg 1 B jump $end
$var reg 3 C alucontrol[2:0] $end
$var reg 2 D aluop[1:0] $end
$var reg 1 E branch $end
$scope module md $end
$var reg 6 F op[5:0] $end
$var reg 1 G memtoreg $end
$var reg 1 H memwrite $end
$var reg 1 I branch $end
$var reg 1 J alusrc $end
$var reg 1 K regdst $end
$var reg 1 L regwrite $end
$var reg 1 M jump $end
$var reg 2 N aluop[1:0] $end
$var reg 9 O controls[8:0] $end
$upscope $end
$scope module ad $end
$var reg 6 P funct[5:0] $end
$var reg 2 Q aluop[1:0] $end
$var reg 3 R alucontrol[2:0] $end
$upscope $end
$upscope $end
$scope module mips_datapath $end
$var reg 1 S clk $end
$var reg 1 T reset $end
$var reg 1 U memtoreg $end
$var reg 1 V pcsrc $end
$var reg 1 W alusrc $end
$var reg 1 X regdst $end
$var reg 1 Y regwrite $end
$var reg 1 Z jump $end
$var reg 3 [ alucontrol[2:0] $end
$var reg 32 \ readdata[31:0] $end
$var reg 32 ] instr[31:0] $end
$var reg 1 ^ zero $end
$var reg 32 _ pc[31:0] $end
$var reg 32 ` aluout[31:0] $end
$var reg 32 a writedata[31:0] $end
$var reg 5 b writereg[4:0] $end
$var reg 32 c pcjump[31:0] $end
$var reg 32 d pcnext[31:0] $end
$var reg 32 e pcnextbr[31:0] $end
$var reg 32 f pcplus4[31:0] $end
$var reg 32 g pcbranch[31:0] $end
$var reg 32 h signimm[31:0] $end
$var reg 32 i signimmsh[31:0] $end
$var reg 32 j srca[31:0] $end
$var reg 32 k srcb[31:0] $end
$var reg 32 l result[31:0] $end
$scope module pcreg $end
$var reg 1 m clk $end
$var reg 1 n reset $end
$var reg 32 o d[31:0] $end
$var reg 32 p q[31:0] $end
$upscope $end
$scope module pcadd1 $end
$var reg 32 q a[31:0] $end
$var reg 32 r b[31:0] $end
$var reg 32 s y[31:0] $end
$upscope $end
$scope module immsh $end
$var reg 32 t a[31:0] $end
$var reg 32 u y[31:0] $end
$upscope $end
$scope module pcadd2 $end
$var reg 32 v a[31:0] $end
$var reg 32 w b[31:0] $end
$var reg 32 x y[31:0] $end
$upscope $end
$scope module pcbrmux $end
$var reg 32 y d0[31:0] $end
$var reg 32 z d1[31:0] $end
$var reg 1 { s $end
$var reg 32 | y[31:0] $end
$upscope $end
$scope module pcmux $end
$var reg 32 } d0[31:0] $end
$var reg 32 !" d1[31:0] $end
$var reg 1 "" s $end
$var reg 32 #" y[31:0] $end
$upscope $end
$scope module rf $end
$var reg 1 $" clk $end
$var reg 1 %" we3 $end
$var reg 5 &" a1[4:0] $end
$var reg 5 '" a2[4:0] $end
$var reg 5 (" a3[4:0] $end
$var reg 32 )" wd3[31:0] $end
$var reg 32 *" rd1[31:0] $end
$var reg 32 +" rd2[31:0] $end
$comment mem is not handled $end
$upscope $end
$scope module wrmux $end
$var reg 5 ," d0[4:0] $end
$var reg 5 -" d1[4:0] $end
$var reg 1 ." s $end
$var reg 5 /" y[4:0] $end
$upscope $end
$scope module resmux $end
$var reg 32 0" d0[31:0] $end
$var reg 32 1" d1[31:0] $end
$var reg 1 2" s $end
$var reg 32 3" y[31:0] $end
$upscope $end
$scope module se $end
$var reg 16 4" a[15:0] $end
$var reg 32 5" aext[31:0] $end
$upscope $end
$scope module srcbmux $end
$var reg 32 6" d0[31:0] $end
$var reg 32 7" d1[31:0] $end
$var reg 1 8" s $end
$var reg 32 9" y[31:0] $end
$upscope $end
$scope module mainalu $end
$var reg 32 :" a[31:0] $end
$var reg 32 ;" b[31:0] $end
$var reg 3 <" alucontrol[2:0] $end
$var reg 32 =" result[31:0] $end
$var reg 1 >" zero $end
$upscope $end
$upscope $end
$upscope $end
$upscope $end
$enddefinitions $end
#0
0!
1"
0#
b00000000000000000000000000000000 $
b00100000000001110000000000000010 %
b00000000000000000000000000000010 &
bUUUUUUUUUUUUUUUUUUUUUUUUUUUUUUUU '
b00000000000000000000000000000000 (
0)
1*
b00000000000000000000000000000000 +
b00100000000001110000000000000010 ,
b00000000000000000000000000000000 -
b00000000000000000000000000000010 .
bUUUUUUUUUUUUUUUUUUUUUUUUUUUUUUUU /
00
01
12
03
14
05
06
07
b010 8
b001000 9
b000010 :
0;
0<
0=
0>
1?
0@
1A
0B
b010 C
b00 D
0E
b001000 F
0G
0H
0I
1J
0K
1L
0M
b00 N
b101000000 O
b000010 P
b00 Q
b010 R
0S
1T
0U
0V
1W
0X
1Y
0Z
b010 [
b00000000000000000000000000000000 \
b00100000000001110000000000000010 ]
0^
b00000000000000000000000000000000 _
b00000000000000000000000000000010 `
bUUUUUUUUUUUUUUUUUUUUUUUUUUUUUUUU a
b00111 b
b00000000000111000000000000001000 c
b00000000000000000000000000000100 d
b00000000000000000000000000000100 e
b00000000000000000000000000000100 f
b00000000000000000000000000001100 g
b00000000000000000000000000000010 h
b00000000000000000000000000001000 i
b00000000000000000000000000000000 j
b00000000000000000000000000000010 k
b00000000000000000000000000000010 l
0m
1n
b00000000000000000000000000000100 o
b00000000000000000000000000000000 p
b00000000000000000000000000000000 q
b00000000000000000000000000000100 r
b00000000000000000000000000000100 s
b00000000000000000000000000000010 t
b00000000000000000000000000001000 u
b00000000000000000000000000000100 v
b00000000000000000000000000001000 w
b00000000000000000000000000001100 x
b00000000000000000000000000000100 y
b00000000000000000000000000001100 z
0{
b00000000000000000000000000000100 |
b00000000000000000000000000000100 }
b00000000000111000000000000001000 !"
0""
b00000000000000000000000000000100 #"
0$"
1%"
b00000 &"
b00111 '"
b00111 ("
b00000000000000000000000000000010 )"
b00000000000000000000000000000000 *"
bUUUUUUUUUUUUUUUUUUUUUUUUUUUUUUUU +"
b00111 ,"
b00000 -"
0."
b00111 /"
b00000000000000000000000000000010 0"
b00000000000000000000000000000000 1"
02"
b00000000000000000000000000000010 3"
b0000000000000010 4"
b00000000000000000000000000000010 5"
bUUUUUUUUUUUUUUUUUUUUUUUUUUUUUUUU 6"
b00000000000000000000000000000010 7"
18"
b00000000000000000000000000000010 9"
b00000000000000000000000000000000 :"
b00000000000000000000000000000010 ;"
b010 <"
b00000000000000000000000000000010 ="
0>"
#10000000
1!
0"
b00000000000000000000000000000100 $
1)
0*
b00000000000000000000000000000100 +
1S
0T
b00000000000000000000000000000100 _
b00000000000000000000000000001000 d
b00000000000000000000000000001000 e
b00000000000000000000000000001000 f
b00000000000000000000000000010000 g
1m
0n
b00000000000000000000000000001000 o
b00000000000000000000000000000100 p
b00000000000000000000000000000100 q
b00000000000000000000000000001000 s
b00000000000000000000000000001000 v
b00000000000000000000000000010000 x
b00000000000000000000000000001000 y
b00000000000000000000000000010000 z
b00000000000000000000000000001000 |
b00000000000000000000000000001000 }
b00000000000000000000000000001000 #"
1$"
#20000000
0!
1"
b00000000000000000000000000000000 $
b00100000000010000000000000000110 %
b00000000000000000000000000000110 &
0)
1*
b00000000000000000000000000000000 +
b00100000000010000000000000000110 ,
b00000000000000000000000000000110 .
b000110 :
b000110 P
0S
1T
b00100000000010000000000000000110 ]
b00000000000000000000000000000000 _
b00000000000000000000000000000110 `
b01000 b
b00000000001000000000000000011000 c
b00000000000000000000000000000100 d
b00000000000000000000000000000100 e
b00000000000000000000000000000100 f
b00000000000000000000000000011100 g
b00000000000000000000000000000110 h
b00000000000000000000000000011000 i
b00000000000000000000000000000110 k
b00000000000000000000000000000110 l
0m
1n
b00000000000000000000000000000100 o
b00000000000000000000000000000000 p
b00000000000000000000000000000000 q
b00000000000000000000000000000100 s
b00000000000000000000000000000110 t
b00000000000000000000000000011000 u
b00000000000000000000000000000100 v
b00000000000000000000000000011000 w
b00000000000000000000000000011100 x
b00000000000000000000000000000100 y
b00000000000000000000000000011100 z
b00000000000000000000000000000100 |
b00000000000000000000000000000100 }
b00000000001000000000000000011000 !"
b00000000000000000000000000000100 #"
0$"
b01000 '"
b01000 ("
b00000000000000000000000000000110 )"
b01000 ,"
b01000 /"
b00000000000000000000000000000110 0"
b00000000000000000000000000000110 3"
b0000000000000110 4"
b00000000000000000000000000000110 5"
b00000000000000000000000000000110 7"
b00000000000000000000000000000110 9"
b00000000000000000000000000000110 ;"
b00000000000000000000000000000110 ="
#30000000
1!
0"
b00000000000000000000000000000100 $
1)
0*
b00000000000000000000000000000100 +
1S
0T
b00000000000000000000000000000100 _
b00000000000000000000000000001000 d
b00000000000000000000000000001000 e
b00000000000000000000000000001000 f
b00000000000000000000000000100000 g
1m
0n
b00000000000000000000000000001000 o
b00000000000000000000000000000100 p
b00000000000000000000000000000100 q
b00000000000000000000000000001000 s
b00000000000000000000000000001000 v
b00000000000000000000000000100000 x
b00000000000000000000000000001000 y
b00000000000000000000000000100000 z
b00000000000000000000000000001000 |
b00000000000000000000000000001000 }
b00000000000000000000000000001000 #"
1$"
#40000000
0!
b10001100111001110000000000000000 %
b00000000000000000000000000000010 &
b00000000000000000000000000000010 '
0)
b10001100111001110000000000000000 ,
b00000000000000000000000000000010 .
b00000000000000000000000000000010 /
11
b100011 9
b000000 :
1<
b100011 F
1G
b101001000 O
b000000 P
0S
1U
b10001100111001110000000000000000 ]
b00000000000000000000000000000010 `
b00000000000000000000000000000010 a
b00111 b
b00000011100111000000000000000000 c
b00000000000000000000000000001000 g
b00000000000000000000000000000000 h
b00000000000000000000000000000000 i
b00000000000000000000000000000010 j
b00000000000000000000000000000000 k
b00000000000000000000000000000000 l
0m
b00000000000000000000000000000000 t
b00000000000000000000000000000000 u
b00000000000000000000000000000000 w
b00000000000000000000000000001000 x
b00000000000000000000000000001000 z
b00000011100111000000000000000000 !"
0$"
b00111 &"
b00111 '"
b00111 ("
b00000000000000000000000000000000 )"
b00000000000000000000000000000010 *"
b00000000000000000000000000000010 +"
b00111 ,"
b00111 /"
b00000000000000000000000000000010 0"
12"
b00000000000000000000000000000000 3"
b0000000000000000 4"
b00000000000000000000000000000000 5"
b00000000000000000000000000000010 6"
b00000000000000000000000000000000 7"
b00000000000000000000000000000000 9"
b00000000000000000000000000000010 :"
b00000000000000000000000000000000 ;"
b00000000000000000000000000000010 ="
#50000000
1!
b00000000000000000000000000001000 $
1)
b00000000000000000000000000001000 +
1S
b00000000000000000000000000001000 _
b00000000000000000000000000001100 d
b00000000000000000000000000001100 e
b00000000000000000000000000001100 f
b00000000000000000000000000001100 g
1m
b00000000000000000000000000001100 o
b00000000000000000000000000001000 p
b00000000000000000000000000001000 q
b00000000000000000000000000001100 s
b00000000000000000000000000001100 v
b00000000000000000000000000001100 x
b00000000000000000000000000001100 y
b00000000000000000000000000001100 z
b00000000000000000000000000001100 |
b00000000000000000000000000001100 }
b00000000000000000000000000001100 #"
1$"
#60000000
0!
b10001101000010000000000000000000 %
b00000000000000000000000000000110 &
b00000000000000000000000000000110 '
0)
b10001101000010000000000000000000 ,
b00000000000000000000000000000110 .
b00000000000000000000000000000110 /
0S
b10001101000010000000000000000000 ]
b00000000000000000000000000000110 `
b00000000000000000000000000000110 a
b01000 b
b00000100001000000000000000000000 c
b00000000000000000000000000000110 j
0m
b00000100001000000000000000000000 !"
0$"
b01000 &"
b01000 '"
b01000 ("
b00000000000000000000000000000110 *"
b00000000000000000000000000000110 +"
b01000 ,"
b01000 /"
b00000000000000000000000000000110 0"
b00000000000000000000000000000110 6"
b00000000000000000000000000000110 :"
b00000000000000000000000000000110 ="
#70000000
1!
b00000000000000000000000000001100 $
1)
b00000000000000000000000000001100 +
1S
b00000000000000000000000000001100 _
b00000000000000000000000000010000 d
b00000000000000000000000000010000 e
b00000000000000000000000000010000 f
b00000000000000000000000000010000 g
1m
b00000000000000000000000000010000 o
b00000000000000000000000000001100 p
b00000000000000000000000000001100 q
b00000000000000000000000000010000 s
b00000000000000000000000000010000 v
b00000000000000000000000000010000 x
b00000000000000000000000000010000 y
b00000000000000000000000000010000 z
b00000000000000000000000000010000 |
b00000000000000000000000000010000 }
b00000000000000000000000000010000 #"
1$"
#80000000
0!
b00000001000001110010100000100000 %
b00000000000000000000000000000000 &
b00000000000000000000000000000000 '
0)
b00000001000001110010100000100000 ,
b00000000000000000000000000000000 .
b00000000000000000000000000000000 /
01
02
13
17
b000000 9
b100000 :
1;
0<
0?
1@
b10 D
b000000 F
0G
0J
1K
b10 N
b110000010 O
b100000 P
b10 Q
0S
0U
0W
1X
b00000001000001110010100000100000 ]
1^
b00000000000000000000000000000000 `
b00000000000000000000000000000000 a
b00101 b
b00000100000111001010000010000000 c
b00000000000000001010000010010000 g
b00000000000000000010100000100000 h
b00000000000000001010000010000000 i
b00000000000000000000000000000000 j
b00000000000000000000000000000000 k
b00000000000000000000000000000000 l
0m
b00000000000000000010100000100000 t
b00000000000000001010000010000000 u
b00000000000000001010000010000000 w
b00000000000000001010000010010000 x
b00000000000000001010000010010000 z
b00000100000111001010000010000000 !"
0$"
b00111 '"
b00101 ("
b00000000000000000000000000000000 )"
b00000000000000000000000000000000 *"
b00000000000000000000000000000000 +"
b00111 ,"
b00101 -"
1."
b00101 /"
b00000000000000000000000000000000 0"
02"
b00000000000000000000000000000000 3"
b0010100000100000 4"
b00000000000000000010100000100000 5"
b00000000000000000000000000000000 6"
b00000000000000000010100000100000 7"
08"
b00000000000000000000000000000000 9"
b00000000000000000000000000000000 :"
b00000000000000000000000000000000 ;"
b00000000000000000000000000000000 ="
1>"
#90000000
1!
b00000000000000000000000000010000 $
1)
b00000000000000000000000000010000 +
1S
b00000000000000000000000000010000 _
b00000000000000000000000000010100 d
b00000000000000000000000000010100 e
b00000000000000000000000000010100 f
b00000000000000001010000010010100 g
1m
b00000000000000000000000000010100 o
b00000000000000000000000000010000 p
b00000000000000000000000000010000 q
b00000000000000000000000000010100 s
b00000000000000000000000000010100 v
b00000000000000001010000010010100 x
b00000000000000000000000000010100 y
b00000000000000001010000010010100 z
b00000000000000000000000000010100 |
b00000000000000000000000000010100 }
b00000000000000000000000000010100 #"
1$"
#100000000
0!
b10001100101001010000000000000000 %
0)
b10001100101001010000000000000000 ,
11
12
03
b010 8
b100011 9
b000000 :
1<
1?
0@
b010 C
b00 D
b100011 F
1G
1J
0K
b00 N
b101001000 O
b000000 P
b00 Q
b010 R
0S
1U
1W
0X
b010 [
b10001100101001010000000000000000 ]
b00101 b
b00000010100101000000000000000000 c
b00000000000000000000000000010100 g
b00000000000000000000000000000000 h
b00000000000000000000000000000000 i
0m
b00000000000000000000000000000000 t
b00000000000000000000000000000000 u
b00000000000000000000000000000000 w
b00000000000000000000000000010100 x
b00000000000000000000000000010100 z
b00000010100101000000000000000000 !"
0$"
b00101 &"
b00101 '"
b00101 ("
b00101 ,"
b00000 -"
0."
b00101 /"
12"
b0000000000000000 4"
b00000000000000000000000000000000 5"
b00000000000000000000000000000000 7"
18"
b010 <"
#110000000
1!
b00000000000000000000000000010100 $
1)
b00000000000000000000000000010100 +
1S
b00000000000000000000000000010100 _
b00000000000000000000000000011000 d
b00000000000000000000000000011000 e
b00000000000000000000000000011000 f
b00000000000000000000000000011000 g
1m
b00000000000000000000000000011000 o
b00000000000000000000000000010100 p
b00000000000000000000000000010100 q
b00000000000000000000000000011000 s
b00000000000000000000000000011000 v
b00000000000000000000000000011000 x
b00000000000000000000000000011000 y
b00000000000000000000000000011000 z
b00000000000000000000000000011000 |
b00000000000000000000000000011000 }
b00000000000000000000000000011000 #"
1$"
#120000000
0!
b00001000000000000000000000000010 %
b00000000000000000000000000000000 &
0)
b00001000000000000000000000000010 ,
b00000000000000000000000000000000 .
01
02
04
15
17
b000010 9
b000010 :
1;
0<
0?
0A
1B
b000010 F
0G
0J
0L
1M
b000000100 O
b000010 P
0S
0U
0W
0Y
1Z
b00001000000000000000000000000010 ]
1^
b00000000000000000000000000000000 `
b00000 b
b00000000000000000000000000001000 c
b00000000000000000000000000001000 d
b00000000000000000000000000100000 g
b00000000000000000000000000000010 h
b00000000000000000000000000001000 i
b00000000000000000000000000000000 k
b00000000000000000000000000000000 l
0m
b00000000000000000000000000001000 o
b00000000000000000000000000000010 t
b00000000000000000000000000001000 u
b00000000000000000000000000001000 w
b00000000000000000000000000100000 x
b00000000000000000000000000100000 z
b00000000000000000000000000001000 !"
1""
b00000000000000000000000000001000 #"
0$"
0%"
b00000 &"
b00000 '"
b00000 ("
b00000000000000000000000000000000 )"
b00000 ,"
b00000 /"
b00000000000000000000000000000000 0"
02"
b00000000000000000000000000000000 3"
b0000000000000010 4"
b00000000000000000000000000000010 5"
b00000000000000000000000000000010 7"
08"
b00000000000000000000000000000000 9"
b00000000000000000000000000000000 ;"
b00000000000000000000000000000000 ="
1>"
#130000000
1!
b00000000000000000000000000001000 $
1)
b00000000000000000000000000001000 +
1S
b00000000000000000000000000001000 _
b00000000000000000000000000001100 e
b00000000000000000000000000001100 f
b00000000000000000000000000010100 g
1m
b00000000000000000000000000001000 p
b00000000000000000000000000001000 q
b00000000000000000000000000001100 s
b00000000000000000000000000001100 v
b00000000000000000000000000010100 x
b00000000000000000000000000001100 y
b00000000000000000000000000010100 z
b00000000000000000000000000001100 |
b00000000000000000000000000001100 }
1$"
#140000000
0!
b00010000101001110000000000000010 %
0)
b00010000101001110000000000000010 ,
05
16
b110 8
b000100 9
1>
0B
b110 C
b01 D
1E
b000100 F
1I
0M
b01 N
b000100001 O
b01 Q
b110 R
0S
1V
0Z
b110 [
b00010000101001110000000000000010 ]
b00111 b
b00000010100111000000000000001000 c
b00000000000000000000000000010100 d
b00000000000000000000000000010100 e
0m
b00000000000000000000000000010100 o
1{
b00000000000000000000000000010100 |
b00000000000000000000000000010100 }
b00000010100111000000000000001000 !"
0""
b00000000000000000000000000010100 #"
0$"
b00101 &"
b00111 '"
b00111 ("
b00111 ,"
b00111 /"
b110 <"
#150000000
1!
b00000000000000000000000000010100 $
1)
b00000000000000000000000000010100 +
1S
b00000000000000000000000000010100 _
b00000000000000000000000000100000 d
b00000000000000000000000000100000 e
b00000000000000000000000000011000 f
b00000000000000000000000000100000 g
1m
b00000000000000000000000000100000 o
b00000000000000000000000000010100 p
b00000000000000000000000000010100 q
b00000000000000000000000000011000 s
b00000000000000000000000000011000 v
b00000000000000000000000000100000 x
b00000000000000000000000000011000 y
b00000000000000000000000000100000 z
b00000000000000000000000000100000 |
b00000000000000000000000000100000 }
b00000000000000000000000000100000 #"
1$"
