HAPRA/Hapra9/datapath/testbench.vcd
$date
  Tue Jan 14 17:31:44 2025
$end
$version
  GHDL v0
$end
$timescale
  1 fs
$end
$scope module standard $end
$upscope $end
$scope module std_logic_1164 $end
$upscope $end
$scope module numeric_std $end
$upscope $end
$scope module datapath_tb $end
$var reg 1 ! clk_t $end
$var reg 1 " reset_t $end
$var reg 1 # memtoreg_t $end
$var reg 1 $ pcsrc_t $end
$var reg 1 % alusrc_t $end
$var reg 1 & regdst_t $end
$var reg 1 ' regwrite_t $end
$var reg 1 ( jump_t $end
$var reg 3 ) alucontrol_t[2:0] $end
$var reg 32 * instr_t[31:0] $end
$var reg 32 + readdata_t[31:0] $end
$var reg 1 , zero_t $end
$var reg 32 - pc_t[31:0] $end
$var reg 32 . aluout_t[31:0] $end
$var reg 32 / writedata_t[31:0] $end
$scope module datapath_test $end
$var reg 1 0 clk $end
$var reg 1 1 reset $end
$var reg 1 2 memtoreg $end
$var reg 1 3 pcsrc $end
$var reg 1 4 alusrc $end
$var reg 1 5 regdst $end
$var reg 1 6 regwrite $end
$var reg 1 7 jump $end
$var reg 3 8 alucontrol[2:0] $end
$var reg 32 9 readdata[31:0] $end
$var reg 32 : instr[31:0] $end
$var reg 1 ; zero $end
$var reg 32 < pc[31:0] $end
$var reg 32 = aluout[31:0] $end
$var reg 32 > writedata[31:0] $end
$var reg 5 ? writereg[4:0] $end
$var reg 32 @ pcjump[31:0] $end
$var reg 32 A pcnext[31:0] $end
$var reg 32 B pcnextbr[31:0] $end
$var reg 32 C pcplus4[31:0] $end
$var reg 32 D pcbranch[31:0] $end
$var reg 32 E signimm[31:0] $end
$var reg 32 F signimmsh[31:0] $end
$var reg 32 G srca[31:0] $end
$var reg 32 H srcb[31:0] $end
$var reg 32 I result[31:0] $end
$scope module pcreg $end
$var reg 1 J clk $end
$var reg 1 K reset $end
$var reg 32 L d[31:0] $end
$var reg 32 M q[31:0] $end
$upscope $end
$scope module pcadd1 $end
$var reg 32 N a[31:0] $end
$var reg 32 O b[31:0] $end
$var reg 32 P y[31:0] $end
$upscope $end
$scope module immsh $end
$var reg 32 Q a[31:0] $end
$var reg 32 R y[31:0] $end
$upscope $end
$scope module pcadd2 $end
$var reg 32 S a[31:0] $end
$var reg 32 T b[31:0] $end
$var reg 32 U y[31:0] $end
$upscope $end
$scope module pcbrmux $end
$var reg 32 V d0[31:0] $end
$var reg 32 W d1[31:0] $end
$var reg 1 X s $end
$var reg 32 Y y[31:0] $end
$upscope $end
$scope module pcmux $end
$var reg 32 Z d0[31:0] $end
$var reg 32 [ d1[31:0] $end
$var reg 1 \ s $end
$var reg 32 ] y[31:0] $end
$upscope $end
$scope module rf $end
$var reg 1 ^ clk $end
$var reg 1 _ we3 $end
$var reg 5 ` a1[4:0] $end
$var reg 5 a a2[4:0] $end
$var reg 5 b a3[4:0] $end
$var reg 32 c wd3[31:0] $end
$var reg 32 d rd1[31:0] $end
$var reg 32 e rd2[31:0] $end
$comment mem is not handled $end
$upscope $end
$scope module wrmux $end
$var reg 5 f d0[4:0] $end
$var reg 5 g d1[4:0] $end
$var reg 1 h s $end
$var reg 5 i y[4:0] $end
$upscope $end
$scope module resmux $end
$var reg 32 j d0[31:0] $end
$var reg 32 k d1[31:0] $end
$var reg 1 l s $end
$var reg 32 m y[31:0] $end
$upscope $end
$scope module se $end
$var reg 16 n a[15:0] $end
$var reg 32 o aext[31:0] $end
$upscope $end
$scope module srcbmux $end
$var reg 32 p d0[31:0] $end
$var reg 32 q d1[31:0] $end
$var reg 1 r s $end
$var reg 32 s y[31:0] $end
$upscope $end
$scope module mainalu $end
$var reg 32 t a[31:0] $end
$var reg 32 u b[31:0] $end
$var reg 3 v alucontrol[2:0] $end
$var reg 32 w result[31:0] $end
$var reg 1 x zero $end
$upscope $end
$upscope $end
$upscope $end
$enddefinitions $end
#0
0!
1"
0#
0$
1%
0&
1'
0(
b001 )
b00000000000001110000000000000010 *
b00000000000000000000000000000000 +
1,
b00000000000000000000000000000000 -
b00000000000000000000000000000000 .
b00000000000000000000000000000000 /
00
11
02
03
14
05
16
07
b001 8
b00000000000001110000000000000010 9
b00000000000000000000000000000000 :
1;
b00000000000000000000000000000000 <
b00000000000000000000000000000000 =
b00000000000000000000000000000000 >
b00000 ?
b00000000000000000000000000000000 @
b00000000000000000000000000000100 A
b00000000000000000000000000000100 B
b00000000000000000000000000000100 C
b00000000000000000000000000000100 D
b00000000000000000000000000000000 E
b00000000000000000000000000000000 F
b00000000000000000000000000000000 G
b00000000000000000000000000000000 H
b00000000000000000000000000000000 I
0J
1K
b00000000000000000000000000000100 L
b00000000000000000000000000000000 M
b00000000000000000000000000000000 N
b00000000000000000000000000000100 O
b00000000000000000000000000000100 P
b00000000000000000000000000000000 Q
b00000000000000000000000000000000 R
b00000000000000000000000000000100 S
b00000000000000000000000000000000 T
b00000000000000000000000000000100 U
b00000000000000000000000000000100 V
b00000000000000000000000000000100 W
0X
b00000000000000000000000000000100 Y
b00000000000000000000000000000100 Z
b00000000000000000000000000000000 [
0\
b00000000000000000000000000000100 ]
0^
1_
b00000 `
b00000 a
b00000 b
b00000000000000000000000000000000 c
b00000000000000000000000000000000 d
b00000000000000000000000000000000 e
b00000 f
b00000 g
0h
b00000 i
b00000000000000000000000000000000 j
b00000000000001110000000000000010 k
0l
b00000000000000000000000000000000 m
b0000000000000000 n
b00000000000000000000000000000000 o
b00000000000000000000000000000000 p
b00000000000000000000000000000000 q
1r
b00000000000000000000000000000000 s
b00000000000000000000000000000000 t
b00000000000000000000000000000000 u
b001 v
b00000000000000000000000000000000 w
1x
#10000000
1!
0"
b00000000000000000000000000000100 -
10
01
b00000000000000000000000000000100 <
b00000000000000000000000000001000 A
b00000000000000000000000000001000 B
b00000000000000000000000000001000 C
b00000000000000000000000000001000 D
1J
0K
b00000000000000000000000000001000 L
b00000000000000000000000000000100 M
b00000000000000000000000000000100 N
b00000000000000000000000000001000 P
b00000000000000000000000000001000 S
b00000000000000000000000000001000 U
b00000000000000000000000000001000 V
b00000000000000000000000000001000 W
b00000000000000000000000000001000 Y
b00000000000000000000000000001000 Z
b00000000000000000000000000001000 ]
1^
#20000000
0!
1"
b00000000000010000000000000000110 *
b00000000000000000000000000000000 -
00
11
b00000000000010000000000000000110 9
b00000000000000000000000000000000 <
b00000000000000000000000000000100 A
b00000000000000000000000000000100 B
b00000000000000000000000000000100 C
b00000000000000000000000000000100 D
0J
1K
b00000000000000000000000000000100 L
b00000000000000000000000000000000 M
b00000000000000000000000000000000 N
b00000000000000000000000000000100 P
b00000000000000000000000000000100 S
b00000000000000000000000000000100 U
b00000000000000000000000000000100 V
b00000000000000000000000000000100 W
b00000000000000000000000000000100 Y
b00000000000000000000000000000100 Z
b00000000000000000000000000000100 ]
0^
b00000000000010000000000000000110 k
#30000000
1!
0"
b00000000000000000000000000000100 -
10
01
b00000000000000000000000000000100 <
b00000000000000000000000000001000 A
b00000000000000000000000000001000 B
b00000000000000000000000000001000 C
b00000000000000000000000000001000 D
1J
0K
b00000000000000000000000000001000 L
b00000000000000000000000000000100 M
b00000000000000000000000000000100 N
b00000000000000000000000000001000 P
b00000000000000000000000000001000 S
b00000000000000000000000000001000 U
b00000000000000000000000000001000 V
b00000000000000000000000000001000 W
b00000000000000000000000000001000 Y
b00000000000000000000000000001000 Z
b00000000000000000000000000001000 ]
1^
#40000000
0!
b00000001000010000000000000000000 *
00
b00000001000010000000000000000000 9
0J
0^
b00000001000010000000000000000000 k
#50000000
b00000000111001110000000000000000 *
b00000000111001110000000000000000 9
b00000000111001110000000000000000 k
#60000000
0%
1&
b010 )
b00000001000001110010100000000000 *
04
15
b010 8
b00000001000001110010100000000000 9
1h
b00000001000001110010100000000000 k
0r
b010 v
#70000000
1!
b00000000000000000000000000001000 -
10
b00000000000000000000000000001000 <
b00000000000000000000000000001100 A
b00000000000000000000000000001100 B
b00000000000000000000000000001100 C
b00000000000000000000000000001100 D
1J
b00000000000000000000000000001100 L
b00000000000000000000000000001000 M
b00000000000000000000000000001000 N
b00000000000000000000000000001100 P
b00000000000000000000000000001100 S
b00000000000000000000000000001100 U
b00000000000000000000000000001100 V
b00000000000000000000000000001100 W
b00000000000000000000000000001100 Y
b00000000000000000000000000001100 Z
b00000000000000000000000000001100 ]
1^
#80000000
0!
1%
0&
b001 )
b00000000101001010000000000000000 *
00
14
05
b001 8
b00000000101001010000000000000000 9
0J
0^
0h
b00000000101001010000000000000000 k
1r
b001 v
#90000000
b010 )
b00000000101010010000000000000100 *
b010 8
b00000000101010010000000000000100 9
b00000000101010010000000000000100 k
b010 v
#100000000
1!
b00000000000000000000000000001100 -
10
b00000000000000000000000000001100 <
b00000000000000000000000000010000 A
b00000000000000000000000000010000 B
b00000000000000000000000000010000 C
b00000000000000000000000000010000 D
1J
b00000000000000000000000000010000 L
b00000000000000000000000000001100 M
b00000000000000000000000000001100 N
b00000000000000000000000000010000 P
b00000000000000000000000000010000 S
b00000000000000000000000000010000 U
b00000000000000000000000000010000 V
b00000000000000000000000000010000 W
b00000000000000000000000000010000 Y
b00000000000000000000000000010000 Z
b00000000000000000000000000010000 ]
1^
#110000000
0!
b00000001001010010000000000000000 *
00
b00000001001010010000000000000000 9
0J
0^
b00000001001010010000000000000000 k
#120000000
1(
b00000000000000000000000000000010 *
17
b00000000000000000000000000000010 9
b00000000000000000000000000000000 A
b00000000000000000000000000000000 L
1\
b00000000000000000000000000000000 ]
b00000000000000000000000000000010 k
#130000000
1!
b00000000000000000000000000000000 -
10
b00000000000000000000000000000000 <
b00000000000000000000000000000100 B
b00000000000000000000000000000100 C
b00000000000000000000000000000100 D
1J
b00000000000000000000000000000000 M
b00000000000000000000000000000000 N
b00000000000000000000000000000100 P
b00000000000000000000000000000100 S
b00000000000000000000000000000100 U
b00000000000000000000000000000100 V
b00000000000000000000000000000100 W
b00000000000000000000000000000100 Y
b00000000000000000000000000000100 Z
1^
#140000000
0!
1$
0(
b00000000000000000000000000000111 *
00
13
07
b00000000000000000000000000000111 9
b00000000000000000000000000000100 A
0J
b00000000000000000000000000000100 L
1X
0\
b00000000000000000000000000000100 ]
0^
b00000000000000000000000000000111 k
#150000000
1!
1(
b00000000000000000000000000000100 -
10
17
b00000000000000000000000000000100 <
b00000000000000000000000000000000 A
b00000000000000000000000000001000 B
b00000000000000000000000000001000 C
b00000000000000000000000000001000 D
1J
b00000000000000000000000000000000 L
b00000000000000000000000000000100 M
b00000000000000000000000000000100 N
b00000000000000000000000000001000 P
b00000000000000000000000000001000 S
b00000000000000000000000000001000 U
b00000000000000000000000000001000 V
b00000000000000000000000000001000 W
b00000000000000000000000000001000 Y
b00000000000000000000000000001000 Z
1\
b00000000000000000000000000000000 ]
1^
